<?xml version="1.0" encoding="utf-8"?>
<!-- Generator: Adobe Illustrator 21.0.0, SVG Export Plug-In . SVG Version: 6.00 Build 0)  -->
<svg version="1.1" id="Layer_1" xmlns="http://www.w3.org/2000/svg" xmlns:xlink="http://www.w3.org/1999/xlink" x="0px" y="0px"
	 viewBox="0 0 26 32" style="enable-background:new 0 0 26 32;" xml:space="preserve">
<g>
	<g>
		<g>
			<path d="M15.7,30.9c-0.4,0-0.7-0.3-0.7-0.7v-8.5c0-0.4,0.3-0.7,0.7-0.7h8.5c0.4,0,0.7,0.3,0.7,0.7c0,0.4-0.3,0.7-0.7,0.7h-7.8
				v7.8C16.4,30.6,16.1,30.9,15.7,30.9L15.7,30.9z"/>
		</g>
		<g>
			<path d="M15.7,31.6H1.1c-0.8,0-1.4-0.6-1.4-1.4v-8.5c0-0.8,0.6-1.4,1.4-1.4s1.4,0.6,1.4,1.4v7.1h12.7l7.7-7.7V2.4H1.1
				C0.3,2.4-0.4,1.8-0.4,1c0-0.8,0.6-1.4,1.4-1.4h23.2c0.8,0,1.4,0.6,1.4,1.4v20.6c0,0.4-0.1,0.7-0.4,1l-8.5,8.5
				C16.5,31.5,16.1,31.6,15.7,31.6L15.7,31.6z"/>
		</g>
	</g>
	<g>
		<path d="M6.2,7.9v1.7c0,2.1-1,3.2-3,3.2h-1v4.9h-2V4.7h3C5.2,4.7,6.2,5.9,6.2,7.9z M2.2,6.6V11h1c0.6,0,1-0.3,1-1.2V7.8
			c0-0.9-0.3-1.2-1-1.2H2.2z"/>
		<path d="M9,8.3v9.4H7.2V4.7h2.5l2.1,7.7V4.7h1.8v12.9h-2.1L9,8.3z"/>
		<path d="M18.1,10.5h2.8v4.1c0,2.1-1,3.3-3,3.3c-2,0-3-1.2-3-3.3V7.8c0-2.1,1-3.3,3-3.3c2,0,3,1.2,3,3.3v1.3H19V7.7
			c0-0.9-0.4-1.3-1.1-1.3c-0.6,0-1.1,0.4-1.1,1.3v7c0,0.9,0.4,1.3,1.1,1.3c0.6,0,1.1-0.3,1.1-1.3v-2.4h-0.9V10.5z"/>
	</g>
</g>
</svg>
