{
    "key": "group_5a281baf84c52",
    "title": "Intro text",
    "fields": [
        {
            "key": "field_5a281ca0346e1",
            "label": "Boje",
            "name": "boje",
            "type": "radio",
            "instructions": "",
            "required": 0,
            "conditional_logic": 0,
            "wrapper": {
                "width": "30",
                "class": "",
                "id": ""
            },
            "choices": {
                "Zelena": "Zelena",
                "Žuta": "Žuta",
                "Plava": "Plava"
            },
            "allow_null": 0,
            "other_choice": 0,
            "save_other_choice": 0,
            "default_value": "Zelena",
            "layout": "vertical",
            "return_format": "value"
        },
        {
            "key": "field_5a281bba9b109",
            "label": "Intro text",
            "name": "intro_text",
            "type": "wysiwyg",
            "instructions": "",
            "required": 0,
            "conditional_logic": 0,
            "wrapper": {
                "width": "60",
                "class": "",
                "id": ""
            },
            "default_value": "",
            "tabs": "all",
            "toolbar": "full",
            "media_upload": 1,
            "delay": 0
        }
    ],
    "location": [
        [
            {
                "param": "post_type",
                "operator": "==",
                "value": "post"
            }
        ]
    ],
    "menu_order": 0,
    "position": "normal",
    "style": "default",
    "label_placement": "top",
    "instruction_placement": "label",
    "hide_on_screen": "",
    "active": 1,
    "description": "",
    "modified": 1512578328
}